…
#> 
#> ── Listing final breakdown of removed rows:  
#> 
#> nodbsnp: 21
#> 
#> 
#> 
#> ── Finished tidyGWAS ───────────────────────────────────────────────────────────
#> 
#> ℹ A total of 21 rows were removed
#> 
#> ℹ Total running time: 3.8s
#> 
#> Saving metadata from analysis to /tmp/RtmpRYimIr/file1b62d057865/metadata.yaml
#> # A tibble: 99,979 × 21
#>    CHR   POS_37 EffectAllele OtherAllele rowid     B        P     SE  INFO CaseN
#>    <chr>  <int> <chr>        <chr>       <int> <dbl>    <dbl>  <dbl> <dbl> <int>
#>  1 6     2.75e7 C            T           77548 0.212 4.83e-39 0.0162 0.99  53386
#>  2 6     2.81e7 T            C           36396 0.207 4.67e-38 0.016  1     53386
#>  3 6     2.75e7 C            T           77992 0.206 7.92e-38 0.016  0.993 53386
#>  4 6     2.78e7 T            C           67347 0.171 1.45e-32 0.0144 1     53386
#>  5 6     2.63e7 T            C            7577 0.191 8.94e-30 0.0168 0.996 53386
#>  6 6     3.08e7 G            A           26615 0.157 9.77e-28 0.0144 0.954 53386
#>  7 6     2.83e7 C            T           91092 0.116 4.33e-27 0.0108 1.01  53386
#>  8 6     2.64e7 C            T           84820 0.151 9.52e-27 0.0141 1     53386
#>  9 6     3.11e7 C            T           17683 0.143 1.54e-25 0.0137 1     53386
#> 10 6     3.03e7 A            G           71635 0.154 2.58e-25 0.0148 0.992 49683
#> # ℹ 99,969 more rows
#> # ℹ 11 more variables: ControlN <int>, EAF <dbl>, EffectiveN <int>, N <int>,
#> #   POS_38 <int>, RSID <chr>, REF_37 <chr>, REF_38 <chr>, indel <lgl>,
#> #   multi_allelic <lgl>, Z <dbl>
```
…
#> 
#> ── Listing final breakdown of removed rows:  
#> 
#> nodbsnp: 21
#> 
#> 
#> 
#> ── Finished tidyGWAS ───────────────────────────────────────────────────────────
#> 
#> ℹ A total of 21 rows were removed
#> 
#> ℹ Total running time: 3.2s
#> 
#> Saving metadata from analysis to /tmp/RtmpRYimIr/file1b6234d4c157/metadata.yaml
#> # A tibble: 99,979 × 21
#>    CHR   POS_37 EffectAllele OtherAllele rowid     B        P     SE  INFO CaseN
#>    <chr>  <int> <chr>        <chr>       <int> <dbl>    <dbl>  <dbl> <dbl> <int>
#>  1 6     2.75e7 C            T           77548 0.212 4.83e-39 0.0162 0.99  53386
#>  2 6     2.81e7 T            C           36396 0.207 4.67e-38 0.016  1     53386
#>  3 6     2.75e7 C            T           77992 0.206 7.92e-38 0.016  0.993 53386
#>  4 6     2.78e7 T            C           67347 0.171 1.45e-32 0.0144 1     53386
#>  5 6     2.63e7 T            C            7577 0.191 8.94e-30 0.0168 0.996 53386
#>  6 6     3.08e7 G            A           26615 0.157 9.77e-28 0.0144 0.954 53386
#>  7 6     2.83e7 C            T           91092 0.116 4.33e-27 0.0108 1.01  53386
#>  8 6     2.64e7 C            T           84820 0.151 9.52e-27 0.0141 1     53386
#>  9 6     3.11e7 C            T           17683 0.143 1.54e-25 0.0137 1     53386
#> 10 6     3.03e7 A            G           71635 0.154 2.58e-25 0.0148 0.992 49683
#> # ℹ 99,969 more rows
#> # ℹ 11 more variables: ControlN <int>, EAF <dbl>, EffectiveN <int>, N <int>,
#> #   POS_38 <int>, RSID <chr>, REF_37 <chr>, REF_38 <chr>, indel <lgl>,
#> #   multi_allelic <lgl>, Z <dbl>
```
…
