tidyGWAS • tidyGWAS
…
devtools::install_github("ararder/tidyGWAS")
# or
remotes::install_github("ararder/tidyGWAS")

The GWAS summary statistics file can be provided in-memory as a
data.frame/tibble or a filepath that can be read with data.table::fread.
We will use the 100k random rows from the PGC wave 3 schizophrenia GWAS as
an example file.

Here, the column names have already been renamed to the correct
format.

example_file <- dplyr::tibble(tidyGWAS::test_file)
example_file
#> # A tibble: 100,000 × 12
#>      CHR       POS RSID     EffectAllele OtherAllele        B     SE   EAF  INFO
#>    <int>     <int> <chr>    <chr>        <chr>          <dbl>  <dbl> <dbl> <dbl>
#>  1     6  31819813 rs18398… C            G           -0.00570 0.0292 0.975 0.936
#>  2    16  13991338 rs80444… T            C           -0.0177  0.0092 0.641 0.951
#>  3     9  85016930 rs11140… A            T           -0.00230 0.0185 0.916 0.701
#>  4    19  15743403 rs48079… C            G            0.00240 0.0099 0.256 0.996
#>  5    18   5948313 rs948293 T            C            0.00170 0.0092 0.332 0.971
#>  6    13  47224772 rs837    G            A            0.0272  0.0086 0.447 1.01 
#>  7    10  23782010 rs79100… A            T           -0.0226  0.0091 0.666 0.995
#>  8    12  14061867 rs99718… A            T            0.00780 0.009  0.641 0.999
#>  9     7  57393801 rs48706… A            G           -0.00800 0.0097 0.703 0.942
#> 10     2 222786280 rs824920 T            G            0.00210 0.012  0.150 0.996
#> # ℹ 99,990 more rows
#> # ℹ 3 more variables: P <dbl>, CaseN <int>, ControlN <int>
…
# what if we have a file where POS was named bp, and B was named BETA?
# tidyGWAS will not recognize these as valid column names and would drop them.
wrong_colnames <- rename(example_file, bp = POS, BETA = B)

# we can use tidyGWAS_columns to specify current names:
correct_names <- tidyGWAS_columns(
  # first argument is the data.frame
  tbl = wrong_colnames, 
  # then any column which is not correctly named:
  POS = "bp",
  B = "BETA"
  )

correct_names
#> # A tibble: 100,000 × 12
#>      CHR       POS RSID   EffectAllele OtherAllele        B     SE       P   EAF
#>    <int>     <int> <chr>  <chr>        <chr>          <dbl>  <dbl>   <dbl> <dbl>
#>  1     6  31819813 rs183… C            G           -0.00570 0.0292 0.844   0.975
#>  2    16  13991338 rs804… T            C           -0.0177  0.0092 0.0532  0.641
#>  3     9  85016930 rs111… A            T           -0.00230 0.0185 0.900   0.916
#>  4    19  15743403 rs480… C            G            0.00240 0.0099 0.807   0.256
#>  5    18   5948313 rs948… T            C            0.00170 0.0092 0.858   0.332
#>  6    13  47224772 rs837  G            A            0.0272  0.0086 0.00159 0.447
#>  7    10  23782010 rs791… A            T           -0.0226  0.0091 0.0133  0.666
#>  8    12  14061867 rs997… A            T            0.00780 0.009  0.384   0.641
#>  9     7  57393801 rs487… A            G           -0.00800 0.0097 0.413   0.703
#> 10     2 222786280 rs824… T            G            0.00210 0.012  0.860   0.150
#> # ℹ 99,990 more rows
#> # ℹ 3 more variables: CaseN <int>, ControlN <int>, INFO <dbl>
…
Identifying incorrect RSIDs

uses a regex to identify any non RrSs rows.

flag_invalid_rsid(example_file) |> 
  dplyr::filter(invalid_rsid)

A fast function for finding all entries in a duplication

flag_duplicates(example_file, column = "rsid")
#> # A tibble: 100,000 × 13
#>      CHR       POS RSID     EffectAllele OtherAllele        B     SE   EAF  INFO
#>    <int>     <int> <chr>    <chr>        <chr>          <dbl>  <dbl> <dbl> <dbl>
#>  1     6  31819813 rs18398… C            G           -0.00570 0.0292 0.975 0.936
#>  2    16  13991338 rs80444… T            C           -0.0177  0.0092 0.641 0.951
#>  3     9  85016930 rs11140… A            T           -0.00230 0.0185 0.916 0.701
#>  4    19  15743403 rs48079… C            G            0.00240 0.0099 0.256 0.996
#>  5    18   5948313 rs948293 T            C            0.00170 0.0092 0.332 0.971
#>  6    13  47224772 rs837    G            A            0.0272  0.0086 0.447 1.01 
#>  7    10  23782010 rs79100… A            T           -0.0226  0.0091 0.666 0.995
#>  8    12  14061867 rs99718… A            T            0.00780 0.009  0.641 0.999
#>  9     7  57393801 rs48706… A            G           -0.00800 0.0097 0.703 0.942
#> 10     2 222786280 rs824920 T            G            0.00210 0.012  0.150 0.996
#> # ℹ 99,990 more rows
#> # ℹ 4 more variables: P <dbl>, CaseN <int>, ControlN <int>, dup_rsid <lgl>
# or 
flag_duplicates(example_file, column = "chr_pos")
#> # A tibble: 100,000 × 13
#>      CHR       POS RSID     EffectAllele OtherAllele        B     SE   EAF  INFO
#>    <int>     <int> <chr>    <chr>        <chr>          <dbl>  <dbl> <dbl> <dbl>
#>  1     6  31819813 rs18398… C            G           -0.00570 0.0292 0.975 0.936
#>  2    16  13991338 rs80444… T            C           -0.0177  0.0092 0.641 0.951
#>  3     9  85016930 rs11140… A            T           -0.00230 0.0185 0.916 0.701
#>  4    19  15743403 rs48079… C            G            0.00240 0.0099 0.256 0.996
#>  5    18   5948313 rs948293 T            C            0.00170 0.0092 0.332 0.971
#>  6    13  47224772 rs837    G            A            0.0272  0.0086 0.447 1.01 
#>  7    10  23782010 rs79100… A            T           -0.0226  0.0091 0.666 0.995
#>  8    12  14061867 rs99718… A            T            0.00780 0.009  0.641 0.999
#>  9     7  57393801 rs48706… A            G           -0.00800 0.0097 0.703 0.942
#> 10     2 222786280 rs824920 T            G            0.00210 0.012  0.150 0.996
#> # ℹ 99,990 more rows
#> # ℹ 4 more variables: P <dbl>, CaseN <int>, ControlN <int>, dup_chr_pos <lgl>
…
